{ "dateRequete" : "2022/01/04", "candidat" : "Charlotte Marchandise" , "parti" : "Sans étiquette" , "courant" : "gauche", "YoutubeChannel" : {
    "UC0vaEQGLDitNla5EXfXdRZA": {
        "channel_info": {
            "title": "Charlotte Marchandise",
            "country": "FR",
            "publishedAt": "2009-01-13T21:07:01Z",
            "statistics": {
                "viewCount": "29978",
                "subscriberCount": "186",
                "hiddenSubscriberCount": false,
                "videoCount": "35"
            },
            "channelcategories": [
                "https://en.wikipedia.org/wiki/Politics",
                "https://en.wikipedia.org/wiki/Society"
            ]
        },
        "video_data": {
            "aVyPlPm4TgA": {
                "title": "Plus Belle la Politique, Episode 4 : la d\u00e9mocratie peut-elle sauver No\u00ebl ?",
                "publishedAt": "2021-12-20T20:01:10Z",
                "tags": [
                    "PlusBelleLaPolitique",
                    "D\u00e9mocratie",
                    "CharlotteMarchandise",
                    "Pr\u00e9sidentielle",
                    "Pr\u00e9sidentielles2022",
                    "PrimairePopulaire"
                ],
                "livebroadcast": "none",
                "vidid": "aVyPlPm4TgA",
                "viewCount": "125",
                "likeCount": "5",
                "favoriteCount": "0",
                "commentCount": "0",
                "duration": "PT7M15S"
            },
            "R0dTvLf4Q6s": {
                "title": "Le D\u00e9mocratol Do it Yourself",
                "publishedAt": "2021-12-18T16:04:17Z",
                "tags": [
                    "PlusBelleLaPolitique",
                    "PrimairePopulaire",
                    "CharlotteMarchandise",
                    "Presidentielle2022",
                    "Democratol",
                    "DIY",
                    "Noel",
                    "FantastiqueD\u00e9cembre"
                ],
                "livebroadcast": "none",
                "vidid": "R0dTvLf4Q6s",
                "viewCount": "31",
                "likeCount": "4",
                "favoriteCount": "0",
                "commentCount": "0",
                "duration": "PT1M44S"
            },
            "eFgCJC5mG9E": {
                "title": "Plus Belle la Politique - Imaginons une victoire \u00e0 la pr\u00e9sidentielle ! Debout Citoyennes 8 Mars 2020",
                "publishedAt": "2021-12-01T18:15:49Z",
                "tags": [
                    "presidentielles2022",
                    "primairepopulaire",
                    "deboutcitoyennes",
                    "Nouspr\u00e9sidentes",
                    "pr\u00e9sidente",
                    "d\u00e9mocratie",
                    "LSF",
                    "CharlotteMarchandise"
                ],
                "livebroadcast": "none",
                "vidid": "eFgCJC5mG9E",
                "viewCount": "54",
                "likeCount": "5",
                "favoriteCount": "0",
                "commentCount": "0",
                "duration": "PT11M58S"
            },
            "Vj2iDo2cSx8": {
                "title": "Plus Belle la Politique, \u00e9pisode 3 : l'entretien d'embauche",
                "publishedAt": "2021-11-30T17:23:50Z",
                "tags": [
                    "PrimairePopulaire",
                    "Politique",
                    "Pr\u00e9sidentielles2022",
                    "elections",
                    "pr\u00e9sidentielles",
                    "d\u00e9mocratie",
                    "CharlotteMarchandise"
                ],
                "livebroadcast": "none",
                "vidid": "Vj2iDo2cSx8",
                "viewCount": "394",
                "likeCount": "22",
                "favoriteCount": "0",
                "commentCount": "0",
                "duration": "PT13M46S"
            },
            "XpvYJiYPBao": {
                "title": "Plus Belle la Politique, \u00e9pisode 2 : l'offre d'emploi",
                "publishedAt": "2021-11-10T18:03:54Z",
                "tags": [
                    "PrimairePopulaire",
                    "PlusBelleLaPolitique",
                    "Pr\u00e9sidentielles2022",
                    "D\u00e9mocratie",
                    "CharlotteMarchandise"
                ],
                "livebroadcast": "none",
                "vidid": "XpvYJiYPBao",
                "viewCount": "68",
                "likeCount": "5",
                "favoriteCount": "0",
                "commentCount": "0",
                "duration": "PT2M45S"
            },
            "a11y1G1dxhA": {
                "title": "Plus belle la politique, \u00e9pisode 1 : C'est quoi la Primaire Populaire",
                "publishedAt": "2021-11-10T13:29:36Z",
                "tags": [
                    "PrimairePopulaire",
                    "Politique",
                    "Pr\u00e9sidentielles2022",
                    "D\u00e9mocratie",
                    "CharlotteMarchandise"
                ],
                "livebroadcast": "none",
                "vidid": "a11y1G1dxhA",
                "viewCount": "178",
                "likeCount": "9",
                "favoriteCount": "0",
                "commentCount": "1",
                "duration": "PT4M49S"
            },
            "RhMcIL8z6aw": {
                "title": "Candidature \u00e0 la Primaire Populaire",
                "publishedAt": "2021-10-11T16:31:10Z",
                "tags": [
                    "PrimairePopulaire",
                    "D\u00e9mocratie",
                    "CharlotteMarchandise"
                ],
                "livebroadcast": "none",
                "vidid": "RhMcIL8z6aw",
                "viewCount": "136",
                "likeCount": "8",
                "favoriteCount": "0",
                "commentCount": "0",
                "duration": "PT3M1S"
            },
            "2OeKnryJFeg": {
                "title": "Primaire Populaire:  Candidature Charlotte Marchandise, LSF",
                "publishedAt": "2021-10-06T07:36:57Z",
                "tags": [
                    "PrimairePopulaire",
                    "D\u00e9mocratie",
                    "Pr\u00e9sidentielle2022",
                    "LSF",
                    "CharlotteMarchandise"
                ],
                "livebroadcast": "none",
                "vidid": "2OeKnryJFeg",
                "viewCount": "172",
                "likeCount": "6",
                "favoriteCount": "0",
                "commentCount": "2",
                "duration": "PT6M10S"
            },
            "jS_Q_bVcazY": {
                "title": "Primaire Populaire en LSF",
                "publishedAt": "2021-10-03T09:17:23Z",
                "tags": [
                    "politique",
                    "d\u00e9mocratie",
                    "2022",
                    "PrimairePopulaire",
                    "Pr\u00e9sidentielle2022",
                    "JugementMajoritaire",
                    "JusticeSociale",
                    "Climat",
                    "LSF",
                    "CharlotteMarchandise"
                ],
                "livebroadcast": "none",
                "vidid": "jS_Q_bVcazY",
                "viewCount": "218",
                "likeCount": "15",
                "favoriteCount": "0",
                "commentCount": "0",
                "duration": "PT7M16S"
            }
        }
    }
}}